## Interface: 90001
## Title: EPGP
## Notes: Effort Points/Gear Points Loot System
## Author: Alkis Evlogimenos Zernin(Maintainer)
## Version: v6.0.2
## SavedVariables: EPGP_DB
## OptionalDeps: LibRealmInfo
## X-Category: Guild
## X-Website: http://code.google.com/p/epgp/
## X-Compatible-With: 80000
## X-Since-Interface: 60000

libs\LibStub\LibStub.lua
libs\CallbackHandler-1.0\CallbackHandler-1.0.xml

libs\AceAddon-3.0\AceAddon-3.0.xml
libs\AceComm-3.0\AceComm-3.0.xml
libs\AceConsole-3.0\AceConsole-3.0.xml
libs\AceDB-3.0\AceDB-3.0.xml
libs\AceEvent-3.0\AceEvent-3.0.xml
libs\AceGUI-3.0\AceGUI-3.0.xml
libs\AceHook-3.0\AceHook-3.0.xml
libs\AceLocale-3.0\AceLocale-3.0.xml
libs\AceSerializer-3.0\AceSerializer-3.0.xml
libs\AceTimer-3.0\AceTimer-3.0.xml

libs\AceConfig-3.0\AceConfig-3.0.xml
libs\AceConfig-3.0\AceConfigCmd-3.0\AceConfigCmd-3.0.xml
libs\AceConfig-3.0\AceConfigDialog-3.0\AceConfigDialog-3.0.xml
libs\AceConfig-3.0\AceConfigRegistry-3.0\AceConfigRegistry-3.0.xml

libs\LibBabble-Inventory-3.0\lib.xml
libs\LibDeformat-3.0\lib.xml
libs\LibJSON-1.0\lib.xml
libs\LibDataBroker-1.1\LibDataBroker-1.1.lua
libs\LibRealmInfo\LibRealmInfo.lua

LibDebug-1.0.lua
LibCoroutine-1.0.lua
LibItemUtils-1.0.lua
LibGearPoints-1.2.lua
LibGuildStorage-1.2.lua
LibLootNotify-1.0.lua

libs\LibDialog-1.0\lib.xml

localization\localization.xml

epgp.lua
guild_info.lua
epgp_options.lua
epgp_recurring.lua
popups.lua

modules\announce.lua
modules\boss.lua
modules\gptooltip.lua
modules\ldb.lua
modules\log.lua
modules\loot.lua
modules\ui.lua
modules\warnings.lua
modules\whisper.lua