## Interface: 90002
## Title: Details!: Advanced Player Breakdown (plugin)
## Notes: Show extra options and do upgrades on the player breakdown window.
## RequiredDeps: Details

Details_AdvancedPlayerBreakdown.lua
